{
  "OBSConfig": {
    "Connectionstring": "ws://HOSTNAME:4444",
    "Password": "PASSWORD!"
  },
  "HueConfig": {
    "IP": "192.168.42.69",
    "Key": "KEY"
  },
  "SpotifyConfig": {
    "ClientID": "ID",
    "ClientSecret": "SECRET"
  },
  "BlacklightConfig": {
    "IP": "192.168.42.69"
  }
}
